﻿Ergebnisse "Sachsen - Anhalt Open" im Bankdrücken, 18. März 2007 / Arendsee
Klasse                                                                                                       Platzierung   Name                                        Körpergew.   1. Versuch   2. Versuch   3. Versuch   Gesamtpkt.
Frauen                                                                                                       1. Platz      Daria Schütze              Schwerin         56,8 kg      67,5 kg      72,5 kg      77,5 kg      136,15
                                                                                                             2. Platz      Frances Beck               Lüneburg         44,0 kg      40,0 kg      42,5 kg      42,5 kg      111,86
                                                                                                             3. Platz      Sabrina Brandt             Stendal          81,0 kg      60,0 kg      65,0 kg      70,0 kg      104,16
                                                                                                             4. Platz      Svenja Parakenings         Lüneburg         53,5 kg      45,0 kg      50,0 kg      50,0 kg      90,18
Junioren - 23 Jahre                                                                                          1. Platz      Nando Stoll                Schwerin         93,8 kg      160,0 kg     170,0 kg     175,0 kg     165,20
                                                                                                             2. Platz      Merudsan Hakopyan          Schwerin         62,6 kg      115,0 kg     120,0 kg     125,0 kg     161,16
                                                                                                             3. Platz      Philipp Janik              Wittstock        65,0 kg      100,0 kg     105,0 kg     110,0 kg     135,45
                                                                                                             4. Platz      Andy Teitge                B.u.F. Altmark   104,4 kg     140,0 kg     150,0 kg     155,0 kg     134,85
                                                                                                             5. Platz      Andre Ganser               B.u.F. Altmark   93,4 kg      140,0 kg     150,0 kg     155,0 kg     132,30
                                                                                                             6. Platz      Tim Riemland               B.u.F. Altmark   77,6 kg      110,0 kg     120,0 kg     125,0 kg     125,72
                                                                                                             7. Platz      Michel Runge               B.u.F. Altmark   82,0 kg      120,0 kg     125,0 kg     130,0 kg     125,25
                                                                                                             8. Platz      Jan Weber                  Schwerin         87,0 kg      110,0 kg     115,0 kg     122,5 kg     121,28
                                                                                                             9. Platz      Nikolej Sandimirow         Lüneburg         69,0 kg      95,0 kg      100,0 kg     105,0 kg     121,00
                                                                                                             10. Platz     Christian Bothe            F.C. Genthin     59,2 kg      75,0 kg      80,0 kg      82,5 kg      119,71
                                                                                                             11. Platz     Marcel Radespiel           E. Genthin       99,8 kg      125,0 kg     130,0 kg     130,0 kg     114,50
                                                                                                             12. Platz     Thorsten Kemper            E. Genthin       95,0 kg      110,0 kg     115,0 kg     117,5 kg     111,06
                                                                                                             13. Platz     Pierre Szallies            Groß Thondorf    87,5 kg      105,0 kg     112,5 kg     117,5 kg     110,06
                                                                                                             14. Platz     Viktor Derr                Lüneburg         91,0 kg      100,0 kg     105,0 kg     110,0 kg     105,71
Senioren - 40 Jahre                                                                                          1. Platz      Andre Hoff                 B.u.F. Altmark   103,4 kg     210,0 kg     220,0 kg     225,0 kg     203,18
                                                                                                             2. Platz      Stefan Fekken              Parchim          112,0 kg     220,0 kg     230,0 kg     235,0 kg     202,17
                                                                                                             3. Platz      David Micek                Potsdam          99,0 kg      200,0 kg     210,0 kg     220,0 kg     192,99
                                                                                                             4. Platz      Christian Delakowitz       B.u.F.Altmark    103,3 kg     185,0 kg     190,0 kg     200,0 kg     180,60
                                                                                                             5. Platz      Rene Dresel                Lüchow           99,0 kg      170,0 kg     182,5 kg     187,5 kg     172,31
                                                                                                             6. Platz      Uwe Böser                  Schwerin         105,0 kg     180,0 kg     187,5 kg     192,5 kg     168,38
                                                                                                             7. Platz      Martin Grunert             B.u.F.Altmark    71,6 kg      125,0 kg     135,0 kg     140,0 kg     157,41
                                                                                                             8. Platz      Henrik Rilke               Lüneburg         62,0 kg      100,0 kg     107,5 kg     112,5 kg     153,45
                                                                                                             9. Platz      Tino Seedorf               E. Genthin       87,4 kg      140,0 kg     145,0 kg     150,0 kg     143,12
                                                                                                             10. Platz     Stefan Radzuweit           E. Genthin       107,4 kg     150,0 kg     155,0 kg     160,0 kg     138,11
                                                                                                             11. Platz     Sven Stelter               E. Genthin       76,8 kg      110,0 kg     115,0 kg     120,0 kg     131,16
                                                                                                             11. Platz     David Schulenburg          E. Genthin       76,8 kg      115,0 kg     120,0 kg     125,0 kg     131,16
Masters + 40 Jahre                                                                                           1. Platz      Bernhard Urlicki / 60 J.   Potsdam          90,0 kg      145,0 kg     152,5 kg     157,5 kg     210,61
                                                                                                             2. Platz      Peter Rathke / 47 J.       Stendal          88,2 kg      170,0 kg     180,0 kg     185,0 kg     196,90
                                                                                                             3. Platz      Uwe Hering / 43 J.         Kitzscher        99,0 kg      180,0 kg     190,0 kg     200,0 kg     188,95
                                                                                                             4. Platz      Carsten Gruhn / 41 J.      B.u.F. Altmark   107,4 kg     180,0 kg     195,0 kg     205,0 kg     188,56
                                                                                                             5. Platz      Jürgen Teubner / 53 J.     Stendal          84,0 kg      140,0 kg     150,0 kg     150,0 kg     183,77
                                                                                                             6. Platz      Otto Pieczyk / 53 J.       B.u.F. Altmark   107,4 kg     155,0 kg     160,0 kg     165,0 kg     176,05
                                                                                                             7. Platz      Michael Lenz / 41 J.       Potsdam          110,8 kg     175,0 kg     180,0 kg     185,0 kg     164,17
                                                                                                             8. Platz      Fredi Damaschke / 41 J.    Ziemendorf       116,0 kg     175,0 kg     185,0 kg     190,0 kg     161,95
                                                                                                             9. Platz      Sven Laaß / 40 J.          B.u.F. Altmark   110,0 kg     160,0 kg     170,0 kg     175,0 kg     150,45
                                                                                                             10. Platz     Rene Kupfernagel / 42 J.   F.C. Genthin     80,4 kg      135,0 kg     140,0 kg     142,5 kg     146,77
                                                                                                             11. Platz     Jörn Löschner / 41 J.      B.u.F. Altmark   102,6 kg     155,0 kg     160,0 kg     165,0 kg     145,52
                                                                                                             12. Platz     Lutz Dürre / 46 J.         E. Genthin       116,0 kg     140,0 kg     145,0 kg     150,0 kg     136,20
                                                                                                             12. Platz     Armin Bunzel / 55 J.       E. Genthin       89,2 kg      102,5 kg     107,5 kg     112,5 kg     136,20
                                                                                                             14. Platz     Manfred Scheel / 41 J.     Arendsee         90,4 kg      140,0 kg     145,0 kg     145,0 kg     136,05
                                                                                                             15. Platz     Gerd Rickers / 60 J.       Berlin           88,2 kg      100,0 kg     105,0 kg     105,0 kg     135,40
Der Festsaal "Vierländereck" war brechend voll, ca. 200 Zuschauer feierten die Leistungen der vielen
Lokalmatadoren, feuerten aber auch die auswärtigen Starter kräftig an.
Gaststar Steve Benthin aus Schwerin beeindruckte alle Anwesenden mit seiner mitreißenden Posing - Kür und
mußte anschließend eine halbe Stunde lang Autogramm- und Fotowünsche erfüllen.
Vielen Dank an Stefan Märtens (Body Attack - Shop Hannover / Lüneburg) für seine großzügigen
Sachpreisspenden, ebenfalls an den Tattoo - Shop Uelzen für das Pokal - Sponsoring.
Gute Besserung wünschen wir Sven Hauke (Osterburg), dem bei seinem ersten Versuch über 200,0 kg die Hantel
aus der Hand auf den Bauch fiel. Dabei verletzte er sich leicht und mußte leider den Wettkampf beenden.
Ansonsten war es eine stimmungsvolle, unterhaltsame Veranstaltung für alle Anwesenden.
