Place,Name,Sex,BirthDate,BirthYear,Age,Equipment,Division,BodyweightKg,WeightClassKg,Squat1Kg,Squat2Kg,Squat3Kg,Best3SquatKg,Bench1Kg,Bench2Kg,Bench3Kg,Best3BenchKg,Deadlift1Kg,Deadlift2Kg,Deadlift3Kg,Best3DeadliftKg,TotalKg,Event
1,Bara Saleh Mamdoh,F,,,30,Raw,FR-O,47,47,60,75,-77.5,75,30,37.5,42.5,42.5,110,117.5,120,120,237.5,SBD
2,Nilay Yıldız,F,,,29,Raw,FR-O,46.6,47,-60,60,-65,60,40,-52.5,-52.5,40,90,100,112.5,112.5,212.5,SBD
1,İrem Beyza Yılmaz,F,,,20,Raw,FR-O,51.9,52,-70,-70,70,70,50,55,-60,55,100,110,-115,110,235,SBD
2,Arzu Zeynep Budak,F,,,20,Raw,FR-O,51.2,52,85,90,-95,90,40,-42.5,42.5,42.5,90,95,100,100,232.5,SBD
3,Rabia Mutlu,F,,,21,Raw,FR-O,48,52,60,-80,82.5,82.5,37.5,45,47.5,47.5,90,100,-110,100,230,SBD
4,Kübra Yılmaz,F,,,18,Raw,FR-O,50.2,52,65,-85,85,85,37.5,42.5,45,45,-95,95,-100,95,225,SBD
1,Aytuna Yalçın,F,,,29,Raw,FR-O,56.3,57,127.5,135,-137.5,135,67.5,70,-72.5,70,152.5,162.5,167.5,167.5,372.5,SBD
2,Yadigar Başarır,F,,,23,Raw,FR-O,52.6,57,60,70,75,75,40,-65,-65,40,80,105,117.5,117.5,232.5,SBD
3,Melis Bayram,F,,,23,Raw,FR-O,56.4,57,-77.5,77.5,82.5,82.5,37.5,-40,-40,37.5,97.5,105,112.5,112.5,232.5,SBD
4,Aleyna Korkmaz,F,,,23,Raw,FR-O,56.6,57,65,67.5,72.5,72.5,37.5,40,-42.5,40,85,92.5,-100,92.5,205,SBD
1,Şehrinur Aydos,F,,,24,Raw,FR-O,59.5,63,120,130,-140,130,62.5,67.5,-72.5,67.5,140,150,157.5,157.5,355,SBD
2,Oumnia Biya,F,,,24,Raw,FR-O,62.6,63,-100,105,110,110,55,-62.5,-62.5,55,120,130,145,145,310,SBD
3,Selin Çullu,F,,,20,Raw,FR-O,61.5,63,80,-92.5,-92.5,80,55,62.5,-65,62.5,105,115,-122.5,115,257.5,SBD
4,Demet Ok,F,,,24,Raw,FR-O,58.6,63,72.5,77.5,85,85,52.5,-57.5,-57.5,52.5,105,107.5,-115,107.5,245,SBD
5,Kader Soydan,F,,,19,Raw,FR-O,63,63,60,75,80,80,-35,42.5,-45,42.5,100,115,-120,115,237.5,SBD
DQ,Sedef Yağmur Korkmaz,F,,,23,Raw,FR-O,62.3,63,120,-132.5,-132.5,120,65,67.5,-70,67.5,-155,-155,-155,,,SBD
1,Asude Dilagah Dağlıoğlu,F,,,22,Raw,FR-O,66.9,69,150,160,-170,160,65,70,-75,70,180,-190,-200,180,410,SBD
2,Eda Salihoğlu,F,,,22,Raw,FR-O,68.9,69,-90,90,-102.5,90,-45,50,-55,50,115,120,-130,120,260,SBD
3,Melissa Danışman,F,,,20,Raw,FR-O,67.4,69,80,85,90,90,55,57.5,60,60,95,100,102.5,102.5,252.5,SBD
4,Gamze Gürsoydan,F,,,26,Raw,FR-O,68.3,69,80,82.5,90,90,-40,-45,45,45,95,110,115,115,250,SBD
5,Aleyna Görgülü,F,,,22,Raw,FR-O,67,69,-80,80,85,85,35,40,45,45,95,105,115,115,245,SBD
6,Kadriye Sena Ekinci,F,,,23,Raw,FR-O,65.4,69,-80,80,-87.5,80,40,-45,45,45,100,110,115,115,240,SBD
7,Busenur Coşkun,F,,,22,Raw,FR-O,65.2,69,70,-80,-80,70,-42.5,42.5,-45,42.5,100,110,-120,110,222.5,SBD
8,Gülçin Altinay,F,,,18,Raw,FR-O,63.5,69,-40,40,-60,40,50,55,-60,55,90,-110,110,110,205,SBD
1,Fulya Cankurt,F,,,16,Raw,FR-O,71.7,76,90,-100,-100,90,40,45,52.5,52.5,100,110,120,120,262.5,SBD
1,Göksu Sarıca,F,,,23,Raw,FR-O,78.5,84,145,155,-160,155,62.5,67.5,-72.5,67.5,150,160,165,165,387.5,SBD
2,Cemre Tuana Emre,F,,,22,Raw,FR-O,80.7,84,-70,70,-75,70,40,47.5,-50,47.5,90,95,100,100,217.5,SBD
1,Yağmur Gümüşyay,F,,,31,Raw,FR-O,110,84+,147.5,-160,-160,147.5,77.5,82.5,-87.5,82.5,175,182.5,187.5,187.5,417.5,SBD
2,Hazel Oraç,F,,,32,Raw,FR-O,84.9,84+,120,-130,130,130,50,-67.5,67.5,67.5,130,150,-165,150,347.5,SBD
3,Helin Tuna,F,,,20,Raw,FR-O,88,84+,-80,-80,80,80,60,65,-70,65,90,110,-120,110,255,SBD
1,Ömer Alperen Gümüş,M,,,22,Raw,MR-Jr,82.8,83,190,-200,-210,190,166,171.5,175,175,220,240,265,265,630,SBD
2,Mert Tekdemir,M,,,22,Raw,MR-Jr,82.2,83,210,222.5,225,225,125,-135,-135,125,-245,260,-273.5,260,610,SBD
3,İbrahim Ahmet,M,,,21,Raw,MR-Jr,80.1,83,165,180,195,195,130,-140,140,140,-255,-260,260,260,595,SBD
4,Baran Deniz Ölmez,M,,,21,Raw,MR-Jr,81.7,83,175,185,195,195,132.5,142.5,-145,142.5,215,232.5,242.5,242.5,580,SBD
5,Ata Yİğİt Çağlar,M,,,22,Raw,MR-Jr,82.5,83,200,210,215,215,-130,130,-140,130,220,235,-240,235,580,SBD
6,Yunus Emre Kaya,M,,,23,Raw,MR-Jr,81.3,83,-195,-200,200,200,117.5,125,-130,125,230,245,-255,245,570,SBD
7,Yaşar Tutar,M,,,20,Raw,MR-Jr,83,83,150,180,200,200,-130,140,-152.5,140,160,180,220,220,560,SBD
8,Berkin Yiğit,M,,,20,Raw,MR-Jr,78.3,83,190,200,-210,200,-120,120,-127.5,120,200,220,235,235,555,SBD
9,Mehmet Yiğit Sarı,M,,,21,Raw,MR-Jr,82.3,83,182.5,190,-197.5,190,137.5,-142.5,-145,137.5,-205,215,225,225,552.5,SBD
10,Sukru Zorba,M,,,20,Raw,MR-Jr,81.5,83,165,172.5,175,175,135,142.5,-145,142.5,210,222.5,-227.5,222.5,540,SBD
11,Fatih Oduncu,M,,,23,Raw,MR-Jr,82.1,83,140,150,157.5,157.5,130,140,147.5,147.5,200,220,-237.5,220,525,SBD
12,Ali Murtaza Carfİ,M,,,20,Raw,MR-Jr,81.8,83,167.5,172.5,185,185,115,122.5,-130,122.5,200,210,-225,210,517.5,SBD
13,Eren Sertel,M,,,20,Raw,MR-Jr,81.2,83,165,180,190,190,110,-120,-125,110,190,-215,215,215,515,SBD
14,Burak Serbez,M,,,22,Raw,MR-Jr,82.8,83,180,-190,-190,180,-105,105,-110,105,-230,230,-240,230,515,SBD
15,Ali Haydar Mustecep,M,,,21,Raw,MR-Jr,76.7,83,-170,170,180,180,110,122.5,-132.5,122.5,-180,180,210,210,512.5,SBD
16,Hacı Ömer Köse,M,,,23,Raw,MR-Jr,80.3,83,160,170,-180,170,110,120,-125,120,210,222.5,-235,222.5,512.5,SBD
17,Eren Eroğlu,M,,,19,Raw,MR-Jr,81,83,165,175,-180,175,100,105,107.5,107.5,210,-225,225,225,507.5,SBD
18,Ömer Faruk Kişner,M,,,23,Raw,MR-Jr,77.1,83,172.5,180,190,190,100,107.5,-112.5,107.5,202.5,-215,-215,202.5,500,SBD
19,Görkem Yönezer,M,,,21,Raw,MR-Jr,75.8,83,170,180,195,195,-100,100,-120,100,200,-210,-210,200,495,SBD
20,Sefa Kalpaklı,M,,,20,Raw,MR-Jr,81.8,83,170,-180,-180,170,110,-117.5,-122.5,110,200,215,-227.5,215,495,SBD
21,Şakir Ince,M,,,21,Raw,MR-Jr,81.8,83,167.5,-177.5,-180,167.5,100,-107.5,-107.5,100,205,217.5,-235,217.5,485,SBD
22,Kadir Özdemİr,M,,,20,Raw,MR-Jr,79.5,83,145,162.5,-165,162.5,-105,105,-107.5,105,210,-225,-227.5,210,477.5,SBD
23,Furkan Öner,M,,,20,Raw,MR-Jr,83,83,-150,-150,150,150,-110,-115,115,115,180,190,205,205,470,SBD
24,Bertuğ Utku Esgİcİ,M,,,21,Raw,MR-Jr,80.4,83,-160,160,172.5,172.5,90,100,-107.5,100,-160,185,192.5,192.5,465,SBD
25,Gürkan Türkmen,M,,,21,Raw,MR-Jr,76.9,83,150,155,-160,155,100,105,112.5,112.5,175,182.5,192.5,192.5,460,SBD
26,Burak Develi,M,,,23,Raw,MR-Jr,81.4,83,145,155,-160,155,105,112.5,-120,112.5,180,190,-195,190,457.5,SBD
27,Furkan Ulaş,M,,,21,Raw,MR-Jr,81.8,83,-140,140,150,150,90,97.5,107.5,107.5,200,-215,-220,200,457.5,SBD
28,Nurullah Enhar Yerlikaya,M,,,21,Raw,MR-Jr,81.8,83,140,150,160,160,-100,105,-110,105,170,180,190,190,455,SBD
29,Gencay Gençtürk,M,,,23,Raw,MR-Jr,79.7,83,-155,155,-160,155,87.5,-95,-95,87.5,182.5,192.5,-200,192.5,435,SBD
30,Hasan Alp Karakuş,M,,,21,Raw,MR-Jr,82.3,83,-145,145,155,155,-90,90,-100,90,175,-185,185,185,430,SBD
31,Ahmet Emir Dorga,M,,,23,Raw,MR-Jr,80.7,83,120,140,-155,140,-100,105,-115,105,160,175,-185,175,420,SBD
32,Shakiv Muthana,M,,,21,Raw,MR-Jr,77,83,-135,150,155,155,90,105,-115,105,140,155,-165,155,415,SBD
33,Namet Gül,M,,,19,Raw,MR-Jr,75.6,83,135,-140,140,140,95,-100,-107.5,95,170,175,-180,175,410,SBD
34,Enver Ekinci,M,,,21,Raw,MR-Jr,77.6,83,125,135,145,145,90,100,105,105,140,150,160,160,410,SBD
35,Yiğit Uygunlar,M,,,20,Raw,MR-Jr,81.9,83,-120,120,130,130,80,85,90,90,165,180,-190,180,400,SBD
36,Enes İşker,M,,,21,Raw,MR-Jr,78.6,83,120,130,140,140,70,77.5,85,85,140,155,167.5,167.5,392.5,SBD
37,Hüseyin Doğan Erbaş,M,,,23,Raw,MR-Jr,81.2,83,135,140,147.5,147.5,80,-85,-85,80,125,140,-155,140,367.5,SBD
DQ,Mert Keleş,M,,,22,Raw,MR-Jr,78.7,83,-160,-160,-160,,110,115,120,120,170,175,190,190,,SBD
DQ,Tan Yıldız,M,,,19,Raw,MR-Jr,79,83,-130,135,140,140,-87.5,-92.5,-95,,150,160,170,170,,SBD
DQ,Anıl Turgut,M,,,21,Raw,MR-Jr,80.5,83,155,165,-170,165,-120,-125,-125,,190,-200,-200,190,,SBD
DQ,İbrahim Efe Yılmaz,M,,,21,Raw,MR-Jr,80.7,83,-140,140,142.5,142.5,-100,-100,,,-180,,,,,SBD
DQ,Akın Yanan,M,,,21,Raw,MR-Jr,82.2,83,-120,-120,-120,,75,80,-85,80,130,-142.5,147.5,147.5,,SBD
1,Yunus Emre Hilal,M,,,21,Raw,MR-Jr,102.8,105,-235,-235,235,235,175,-180,-180,175,300,-312.5,-312.5,300,710,SBD
2,Yunus Emre Koç,M,,,23,Raw,MR-Jr,103.4,105,225,240,-250,240,175,182.5,187.5,187.5,235,245,-255,245,672.5,SBD
3,Alperen Sever,M,,,23,Raw,MR-Jr,101.4,105,205,225,-235,225,125,135,145,145,235,265,275,275,645,SBD
4,Ahmet Kaan Yücesan,M,,,22,Raw,MR-Jr,103.8,105,205,220,-235,220,-160,-165,165,165,240,255,260,260,645,SBD
5,Emre Erdoğan,M,,,22,Raw,MR-Jr,103.9,105,225,235,-250,235,145,155,-160,155,-255,255,-262.5,255,645,SBD
6,Hasan Kavuzkoz,M,,,21,Raw,MR-Jr,102,105,-220,220,-235,220,-120,-125,125,125,240,255,270,270,615,SBD
7,Nurullah Şenol,M,,,23,Raw,MR-Jr,97.5,105,170,185,-195,185,190,-207.5,-207.5,190,200,220,235,235,610,SBD
8,Yusuf Özinan,M,,,21,Raw,MR-Jr,99.7,105,180,195,-205,195,130,140,-150,140,200,215,230,230,565,SBD
9,Murat İşcanoğlu,M,,,23,Raw,MR-Jr,98,105,190,200,205,205,125,135,-142.5,135,200,210,220,220,560,SBD
10,Hüseyin Kaya,M,,,21,Raw,MR-Jr,102.1,105,180,-200,-220,180,-120,120,130,130,-200,220,240,240,550,SBD
11,Erkan Albayrak,M,,,19,Raw,MR-Jr,103.4,105,185,200,210,210,135,145,160,160,140,180,-200,180,550,SBD
12,İsmail İlteriş Koçer,M,,,22,Raw,MR-Jr,103.2,105,170,185,-200,185,100,105,115,115,200,225,240,240,540,SBD
13,Burak Akın Yener,M,,,23,Raw,MR-Jr,100.4,105,157.5,167.5,175,175,-95,95,105,105,170,-185,185,185,465,SBD
14,Berat Türkücü,M,,,19,Raw,MR-Jr,103.6,105,-140,-152.5,152.5,152.5,90,97.5,-102.5,97.5,170,190,205,205,455,SBD
15,Hasan Özdil,M,,,23,Raw,MR-Jr,98.2,105,-130,130,-140,130,110,120,-135,120,180,-190,-190,180,430,SBD
16,Yiğit Cemal Özer,M,,,23,Raw,MR-Jr,97.8,105,140,150,160,160,75,80,-90,80,160,170,-180,170,410,SBD
17,Umut Sipahi,M,,,22,Raw,MR-Jr,103.1,105,125,135,145,145,75,80,85,85,145,155,-170,155,385,SBD
DQ,Fırat Gümüşoğlu,M,,,23,Raw,MR-Jr,94.6,105,192.5,202.5,-210,202.5,-120,-127.5,-137.5,,200,212.5,220,220,,SBD
DQ,Mehmet Efe Bekdemir,M,,,19,Raw,MR-Jr,100,105,-200,-200,-200,,-130,-130,-130,,-220,,,,,SBD
DQ,Kerem Kaynar,M,,,20,Raw,MR-Jr,101.4,105,-130,-130,130,130,-120,-120,-120,,180,190,-195,190,,SBD
DQ,Mehmet Ali Ensert,M,,,21,Raw,MR-Jr,101.4,105,-200,-205,-210,,145,150,-155,150,260,275,-290,275,,SBD
DQ,Okan İbili,M,,,21,Raw,MR-Jr,101.4,105,-215,-215,-215,,-120,120,-125,120,230,-237.5,-245,230,,SBD
DQ,Emirhan Kartal,M,,,21,Raw,MR-Jr,104.6,105,-190,205,210,210,-135,-135,135,135,-230,-235,-235,,,SBD
1,Sİnan Toygar Kiliç,M,,,23,Raw,MR-Jr,119,120,-341,341,350,350,200,210,,210,290,305,320,320,880,SBD
2,Emre Uğur,M,,,21,Raw,MR-Jr,115.8,120,230,-240,-250,230,150,-160,160,160,250,265,-275,265,655,SBD
3,Furkan Bakır,M,,,23,Raw,MR-Jr,117.6,120,225,235,245,245,125,135,-145,135,250,260,270,270,650,SBD
4,İlkay Can Parlak,M,,,20,Raw,MR-Jr,116.6,120,200,215,220,220,140,150,-155,150,240,255,272.5,272.5,642.5,SBD
5,Alp Turan,M,,,22,Raw,MR-Jr,110.7,120,-200,200,-220,200,150,160,-170,160,260,-280,-280,260,620,SBD
6,Sarp Doğan,M,,,20,Raw,MR-Jr,119.1,120,170,185,200,200,100,115,-125,115,190,210,220,220,535,SBD
DQ,Barış Devrim Sezgin,M,,,23,Raw,MR-Jr,105.4,120,-170,-170,-170,,-110,110,115,115,180,185,-190,185,,SBD
DQ,Görkem Gümüş,M,,,21,Raw,MR-Jr,106.7,120,-40,-40,,,-50,,,,-140,,,,,SBD
1,Ahmet Mirza Toptaş,M,,,20,Raw,MR-Jr,126,120+,260,270,-285,270,170,190,-200,190,310,325,330,330,790,SBD
2,Arda Can Aras,M,,,23,Raw,MR-Jr,129.3,120+,-220,235,-250,235,-175,180,-185,180,235,255,270,270,685,SBD
3,Ediz Olçum,M,,,21,Raw,MR-Jr,126,120+,-185,195,200,200,115,125,130,130,195,200,215,215,545,SBD
4,Furkan Çinar,M,,,21,Raw,MR-Jr,130.2,120+,180,200,-210,200,110,115,120,120,180,200,210,210,530,SBD
DQ,Dahan Sevin,M,,,20,Raw,MR-Jr,156.1,120+,-270,-280,280,280,-180,-180,-180,,-280,,,,,SBD
1,Mazin Aoqyb Lazim,M,,,41,Raw,MR-M,73.4,74,145,-155,155,155,90,97.5,102.5,102.5,180,190,-195,190,447.5,SBD
1,Adem Biyikoğlu,M,,,48,Raw,MR-M,81.8,83,210,225,-232.5,225,155,160,162.5,162.5,260,273.5,277.5,277.5,665,SBD
2,Recai Buber,M,,,41,Raw,MR-M,78,83,-120,120,130,130,90,-100,-100,90,160,170,175,175,395,SBD
3,Özcan Güneş,M,,,47,Raw,MR-M,80,83,120,130,-135,130,110,115,-120,115,150,-155,-155,150,395,SBD
1,Mehmet Ali Deniz,M,,,41,Raw,MR-M,91.6,93,250,-265,-265,250,150,160,-167.5,160,270,285,290,290,700,SBD
2,Şemi Fasal,M,,,41,Raw,MR-M,90.2,93,-210,210,225,225,125,132.5,137.5,137.5,230,260,-280,260,622.5,SBD
3,Serkan Rıfat Koçak,M,,,42,Raw,MR-M,88.7,93,100,-110,-120,100,-130,130,-140,130,150,160,170,170,400,SBD
1,Gökhan Çiçek,M,,,41,Raw,MR-M,103.8,105,200,-205,,200,-142.5,-142.5,142.5,142.5,230,235,-240,235,577.5,SBD
1,Mohanad Aoqyb Lazım,M,,,33,Raw,MR-O,58.9,59,180,186.5,-190,186.5,95,100,-105,100,190,197.5,-201.5,197.5,484,SBD
1,Mert Aykut Kaymak,M,,,24,Raw,MR-O,65.7,66,170,182.5,187.5,187.5,125,130,132.5,132.5,195,205,212.5,212.5,532.5,SBD
2,Muhammed Ali Arslan,M,,,31,Raw,MR-O,65,66,-140,140,142.5,142.5,-107.5,107.5,-110,107.5,210,212.5,-215,212.5,462.5,SBD
1,Abdullah-Furkan Kaya,M,,,28,Raw,MR-O,73,74,175,182.5,190,190,125,130,137.5,137.5,212.5,225,232.5,232.5,560,SBD
2,Cem Kavuncu,M,,,27,Raw,MR-O,73,74,180,195,-200,195,-140,147.5,-150,147.5,200,-212.5,-215,200,542.5,SBD
3,Emre Manav,M,,,21,Raw,MR-O,73.9,74,-180,180,195,195,-112.5,115,122.5,122.5,195,-212.5,215,215,532.5,SBD
4,Erolcan Gündüz,M,,,25,Raw,MR-O,73,74,150,162.5,-170,162.5,90,95,100,100,-195,200,212.5,212.5,475,SBD
5,Taner Çiçek,M,,,26,Raw,MR-O,73.4,74,135,145,-155,145,90,97.5,-105,97.5,140,-155,155,155,397.5,SBD
1,Barış Baki,M,,,25,Raw,MR-O,83,83,220,235.5,-242.5,235.5,150,-157.5,157.5,157.5,245,262.5,-276.5,262.5,655.5,SBD
2,Aykut Çakır,M,,,29,Raw,MR-O,81.4,83,-220,220,-230,220,130,-140,140,140,240,-250,-250,240,600,SBD
3,Hüsnü Batıkan Aliş,M,,,25,Raw,MR-O,81.7,83,170,-195,195,195,120,135,-137.5,135,240,250,255,255,585,SBD
4,Hayrettin Turan,M,,,25,Raw,MR-O,82.3,83,-160,160,180,180,110,125,-135,125,240,260,-281,260,565,SBD
5,Yasin Uğur,M,,,25,Raw,MR-O,81.9,83,192.5,202.5,207.5,207.5,135,-142.5,-142.5,135,205,-215,-222.5,205,547.5,SBD
6,Emre Karamanli,M,,,25,Raw,MR-O,83,83,160,170,-182.5,170,115,122.5,-127.5,122.5,-220,220,240,240,532.5,SBD
7,Kaan Akyüz,M,,,25,Raw,MR-O,81.7,83,165,175,185,185,-105,110,-115,110,190,205,215,215,510,SBD
8,Bilgi Can Köksal,M,,,35,Raw,MR-O,82.3,83,160,172.5,-182.5,172.5,100,110,117.5,117.5,180,200,210,210,500,SBD
9,Musa Yusuf Şahin,M,,,24,Raw,MR-O,81.8,83,-137.5,-137.5,137.5,137.5,112.5,117.5,-125,117.5,172.5,182.5,192.5,192.5,447.5,SBD
10,İsmaİl İzoğlu,M,,,39,Raw,MR-O,81.8,83,140,150,155,155,100,-110,-110,100,-170,180,190,190,445,SBD
11,Samet Akkaya,M,,,25,Raw,MR-O,79.1,83,130,-140,140,140,100,110,-120,110,180,-190,190,190,440,SBD
DQ,Berkay Aşkın,M,,,25,Raw,MR-O,82.8,83,-160,160,190,190,-70,-90,-100,,150,160,-185,160,,SBD
1,Mümİn Kayiş,M,,,25,Raw,MR-O,92.1,93,210,225,237.5,237.5,170,-185,-192.5,170,-320,-320,320,320,727.5,SBD
2,Mehmet Sezgin Küçükyarma,M,,,25,Raw,MR-O,88.5,93,-200,200,212.5,212.5,120,125,127.5,127.5,275,-285,300.5,300.5,640.5,SBD
3,Arİf Atalay Özdemİr,M,,,24,Raw,MR-O,92.1,93,220,-235,-235,220,130,137.5,-140,137.5,250,-260,-260,250,607.5,SBD
4,Emre Dalakli,M,,,24,Raw,MR-O,92.3,93,190,200,210,210,140,-160,-160,140,-240,240,-250,240,590,SBD
5,Tayfun Serdar Uyguç,M,,,24,Raw,MR-O,89.7,93,185,200,-215,200,135,145,150,150,210,225,230,230,580,SBD
6,Deha Karahan,M,,,25,Raw,MR-O,92.2,93,185,197.5,-205,197.5,135,140,-142.5,140,200,215,222.5,222.5,560,SBD
7,Hakan Kaya,M,,,29,Raw,MR-O,84.9,93,150,160,165,165,100,110,115,115,185,195,-210,195,475,SBD
DQ,Oğuzhan Yumrutaş,M,,,27,Raw,MR-O,89.4,93,175,-187.5,195,195,-105,-115,-117.5,,230,245,255,255,,SBD
DQ,Davut Alataş,M,,,41,Raw,MR-O,90.3,93,-170,-180,-180,,120,130,-135,130,-200,200,225,225,,SBD
1,Nuri Doğukan Sarı,M,,,24,Raw,MR-O,103.6,105,285,-300,-300,285,185,195,200,200,270,285,300,300,785,SBD
2,Vur Yektaoğlu,M,,,38,Raw,MR-O,104.8,105,240,247.5,270,270,160,172.5,177.5,177.5,260,280,-295,280,727.5,SBD
3,Berkay Koç,M,,,28,Raw,MR-O,101,105,200,230,235,235,140,160,-170,160,-250,250,270,270,665,SBD
4,Atakan Çokeken,M,,,25,Raw,MR-O,104.2,105,225,232.5,-240,232.5,147.5,150,-157.5,150,-220,230,240,240,622.5,SBD
5,Deniz Kömürcüler,M,,,25,Raw,MR-O,96.2,105,140,150,165,165,85,95,-110,95,180,200,-220,200,460,SBD
1,Ali Afsari,M,,,26,Raw,MR-O,119.2,120,220,227.5,235,235,150,165,-175,165,240,250,260,260,660,SBD
2,Zİya Efe Arat,M,,,26,Raw,MR-O,114.5,120,225,240,250,250,152.5,-165,-165,152.5,237.5,-250,250,250,652.5,SBD
3,Remzi Özgen,M,,,24,Raw,MR-O,112.1,120,185,200,210,210,130,-142.5,-142.5,130,245,-260,-260,245,585,SBD
DQ,Ozan Yaykir,M,,,27,Raw,MR-O,112.3,120,240,250,262.5,262.5,175,185,192.5,192.5,-250,-250,-260,,,SBD
DQ,Hacı Mehmet Elkatmış,M,,,32,Raw,MR-O,116.5,120,220,225,-230,225,175,185,-190,185,-260,-260,-260,,,SBD
1,Cenk Koçak,M,,,26,Raw,MR-O,127.8,120+,300,-320,,300,210,220,230,230,350,370,390,390,920,SBD
2,Erdican Akar,M,,,26,Raw,MR-O,136.5,120+,190,205,220,220,130,137.5,-140,137.5,260,270,-280,270,627.5,SBD
1,Ali Kaan Ekdi,M,,,18,Raw,MR-SJ,58.7,59,80,-100,102.5,102.5,65,77.5,-82.5,77.5,120,140,155,155,335,SBD
2,Ahmet Rıdvan Demirel,M,,,18,Raw,MR-SJ,57.3,59,80,110,-120,110,45,60,-70,60,100,140,150,150,320,SBD
3,Haluk Ulusoy,M,,,16,Raw,MR-SJ,57.5,59,90,100,105,105,70,75,-77.5,75,125,130,140,140,320,SBD
4,Hüseyin Aydın,M,,,18,Raw,MR-SJ,54,59,100,-110,-120,100,65,-75,-75,65,-140,-140,140,140,305,SBD
5,Halil İbrahim Efe Tokyay,M,,,16,Raw,MR-SJ,56.2,59,-100,100,-115,100,60,65,70,70,-120,-130,135,135,305,SBD
6,Emin Kerem Üner,M,,,17,Raw,MR-SJ,56.8,59,95,-110,110,110,60,-75,-75,60,120,-130,132.5,132.5,302.5,SBD
DQ,Çağatay Ceyhan Bilici,M,,,16,Raw,MR-SJ,58,59,130,140,147.5,147.5,-70,-80,-80,,-160,-160,,,,SBD
DQ,İsmail Çubukcu,M,,,18,Raw,MR-SJ,58.3,59,55,70,-80,70,-45,-60,-60,,-85,-85,,,,SBD
1,Erdem Dikici,M,,,18,Raw,MR-SJ,65.8,66,125,145,152.5,152.5,95,105,-112.5,105,-160,180,192.5,192.5,450,SBD
2,Ahmet Emir Esentaş,M,,,18,Raw,MR-SJ,64.9,66,145,-152.5,-152.5,145,110,-115,-115,110,175,185,-195,185,440,SBD
3,Yiğit Çetin,M,,,17,Raw,MR-SJ,65.4,66,155,165,-170,165,95,-102.5,-102.5,95,175,-180,-185,175,435,SBD
4,Ali Emre Kabaharnup,M,,,17,Raw,MR-SJ,65.2,66,100,127.5,-130,127.5,87.5,90,-95,90,-160,170,-180,170,387.5,SBD
5,Mustafa Eltimur,M,,,15,Raw,MR-SJ,65,66,120,130,-135,130,70,-80,-85,70,-160,170,-175,170,370,SBD
6,Talha Öz,M,,,16,Raw,MR-SJ,65.5,66,87.5,95,107.5,107.5,77.5,-85,85,85,110,125,140,140,332.5,SBD
7,Mehmet Özduran,M,,,17,Raw,MR-SJ,60,66,-85,85,95,95,70,-80,80,80,140,-150,150,150,325,SBD
8,Rüştü Eren Kayışoğlu,M,,,18,Raw,MR-SJ,64.2,66,90,105,-110,105,60,-70,-70,60,120,135,-145,135,300,SBD
DQ,Selçuk Haktan Özkurt,M,,,17,Raw,MR-SJ,63,66,125,127.5,-130,127.5,-92.5,-92.5,-92.5,,170,-180,,170,,SBD
1,Yalın Akbıyık,M,,,18,Raw,MR-SJ,73.5,74,-172.5,180,187.5,187.5,115,122.5,-130,122.5,210,217.5,-225,217.5,527.5,SBD
2,Ali Çağan Gerez,M,,,18,Raw,MR-SJ,73.4,74,165,185,-200,185,90,-105,112.5,112.5,180,205,210,210,507.5,SBD
3,Mahmut Küçükler,M,,,18,Raw,MR-SJ,72.3,74,162.5,172.5,-182.5,172.5,95,102.5,-110,102.5,210,225,-240,225,500,SBD
4,Anıl Aydın,M,,,16,Raw,MR-SJ,73.4,74,-175,-185,185,185,92.5,-95,-95,92.5,195,210,-215,210,487.5,SBD
5,Baran Yılmaz,M,,,18,Raw,MR-SJ,72.8,74,160,-167.5,-167.5,160,132.5,142.5,-145,142.5,175,182.5,-190,182.5,485,SBD
6,Semih Maraş,M,,,17,Raw,MR-SJ,73.5,74,157.5,165,170,170,100,-107.5,-107.5,100,175,195,-205,195,465,SBD
7,Bedirhan Çelik,M,,,18,Raw,MR-SJ,72.2,74,150,-165,165,165,90,97.5,100,100,170,192.5,197.5,197.5,462.5,SBD
8,Yusuf Kerem Ağgül,M,,,17,Raw,MR-SJ,72.1,74,140,145,-152.5,145,90,102.5,-107.5,102.5,185,190,-200,190,437.5,SBD
9,Tolga Kansu,M,,,16,Raw,MR-SJ,73.3,74,-150,150,-155,150,85,-95,-95,85,195,-202.5,-202.5,195,430,SBD
10,Ali Samet Budaş,M,,,17,Raw,MR-SJ,72.6,74,135,145,155,155,-75,80,90,90,140,160,165,165,410,SBD
11,Batuhan Yıldırım,M,,,18,Raw,MR-SJ,72.4,74,135,140,155,155,95,100,-107.5,100,130,150,-160,150,405,SBD
12,Alptürk Anzerlioğlu,M,,,17,Raw,MR-SJ,74,74,125,135,145,145,75,80,92.5,92.5,145,150,160,160,397.5,SBD
13,Efe Durmaz,M,,,17,Raw,MR-SJ,72.1,74,130,-140,-140,130,90,-105,-105,90,160,-175,-180,160,380,SBD
14,Arda Çakıl,M,,,18,Raw,MR-SJ,68.2,74,105,115,-127.5,115,65,72.5,-77.5,72.5,110,120,130,130,317.5,SBD
DQ,Hamit Çağatay Dalgıç,M,,,17,Raw,MR-SJ,71.1,74,100,-140,-160,100,-60,-100,-100,,100,150,-172.5,150,,SBD
DQ,Efe Özkul,M,,,18,Raw,MR-SJ,71.9,74,-135,-135,-135,,-75,-75,,,170,-180,-180,170,,SBD
DQ,Lokman Levent Karakaya,M,,,18,Raw,MR-SJ,72.4,74,100,120,-140,120,-80,-100,-102.5,,150,180,-200,180,,SBD
DQ,İbrahim Savcı,M,,,18,Raw,MR-SJ,73.3,74,-160,-165,165,165,-90,-97.5,-100,,187.5,-200,-200,187.5,,SBD
DQ,Ömer Ateşli,M,,,16,Raw,MR-SJ,73.7,74,-90,-90,-90,,65,70,-72.5,70,130,135,140,140,,SBD
1,Alperen Kakçi,M,,,18,Raw,MR-SJ,81.4,83,180,190,-200,190,140,150,-160,150,220,-230,230,230,570,SBD
2,Alim Utku Şen,M,,,17,Raw,MR-SJ,82.4,83,180,192.5,-200,192.5,125,132.5,-135,132.5,215,-227.5,235,235,560,SBD
3,Efe Kubilay Yıldız,M,,,17,Raw,MR-SJ,80.5,83,175,185,-195,185,120,-125,125,125,210,215,222.5,222.5,532.5,SBD
4,Ahmet Koray Narli,M,,,18,Raw,MR-SJ,81.4,83,-195,195,-202.5,195,120,-125,-125,120,195,205,210,210,525,SBD
5,Gökalp Atilla Alıç,M,,,17,Raw,MR-SJ,80.9,83,-177.5,185,-195,185,-92.5,92.5,97.5,97.5,215,-227.5,240,240,522.5,SBD
6,Ömer Altekin,M,,,17,Raw,MR-SJ,82.6,83,-110,120,-127.5,120,95,-100,-100,95,180,190,-200,190,405,SBD
7,Ali Çınar Yazıcı,M,,,15,Raw,MR-SJ,81,83,-137.5,140,145,145,77.5,80,-82.5,80,150,160,165,165,390,SBD
8,Ege Ersavaş,M,,,18,Raw,MR-SJ,80.6,83,110,120,130,130,-85,85,95,95,120,140,155,155,380,SBD
9,Laser Eren Gümüş,M,,,18,Raw,MR-SJ,74.6,83,110,120,125,125,90,100,-102.5,100,140,142.5,-145,142.5,367.5,SBD
10,Ali Dere,M,,,15,Raw,MR-SJ,81.4,83,-110,115,120,120,-80,85,87.5,87.5,125,135,155,155,362.5,SBD
11,Volkan Güngör,M,,,17,Raw,MR-SJ,82.4,83,112.5,120,-127.5,120,50,-57.5,-57.5,50,127.5,137.5,145,145,315,SBD
DQ,Cankan Avcı,M,,,16,Raw,MR-SJ,75.7,83,85,90,100,100,-75,75,-77.5,75,-150,-150,-150,,,SBD
DQ,Çınar Turşucu,M,,,18,Raw,MR-SJ,79.5,83,-130,-130,-130,,-90,90,-95,90,140,150,-155,150,,SBD
1,Mehmet Said Yüzgeç,M,,,19,Raw,MR-SJ,103.4,105,,,,,-155,-155,155,155,,,,,155,B
1,Gönenç Özemre,M,,,20,Raw,MR-Jr,110.3,120,,,,,180,185,-190,185,,,,,185,B
1,Yağız Cevizoğlugil,M,,,21,Raw,MR-Jr,128,120+,,,,,-150,150,-160,150,,,,,150,B
1,Erdal Satır,M,,,32,Raw,MR-O,62.1,66,,,,,-140.5,-140.5,145,145,,,,,145,B
1,Hakan Dağ,M,,,36,Raw,MR-O,74,74,,,,,125,130,140,140,,,,,140,B
2,Murat Bulut,M,,,33,Raw,MR-O,73,74,,,,,-80,85,-95,85,,,,,85,B
1,Yakup Ünal,M,,,28,Raw,MR-O,80,83,,,,,160,167.5,-175,167.5,,,,,167.5,B
1,Furkan Çoban,M,,,25,Raw,MR-O,88.7,93,,,,,135,140,145,145,,,,,145,B
