Division,WeightClassKg,Place,Name,Team,BodyweightKg,Best3SquatKg,Best3BenchKg,Best3DeadliftKg,TotalKg,Equipment,Event,Sex
Boys,51.71,1,Cameron Griffin,College Station,51.71,136.08,54.43,133.81,324.32,Single-ply,SBD,M
Boys,51.71,2,Sam Morris,College Station,51.62,120.2,70.31,120.2,310.71,Single-ply,SBD,M
Boys,51.71,3,Layton Noey,Normangee,49.53,95.25,54.43,113.4,263.08,Single-ply,SBD,M
Boys,51.71,4,Rodrigo Hernandez,Caldwell,51.48,97.52,58.97,106.59,263.08,Single-ply,SBD,M
Boys,55.79,5,River Dowling,Caldwell,51.89,104.33,47.63,111.13,263.08,Single-ply,SBD,M
Boys,59.87,1,Willie Ihlenfeldt,Caldwell,55.97,154.22,99.79,163.29,417.3,Single-ply,SBD,M
Boys,55.79,2,Marquis Wilson,Elgin,55.25,142.88,77.11,174.63,394.63,Single-ply,SBD,M
Boys,55.79,3,JoRey Gonzales,Elgin,53.52,142.88,86.18,156.49,385.55,Single-ply,SBD,M
Boys,55.79,4,Nick Young,Rockdale,54.98,113.4,77.11,156.49,347,Single-ply,SBD,M
Boys,55.79,5,Blaine Wootan,College Station,55.16,138.35,63.5,129.27,331.12,Single-ply,SBD,M
Boys,55.79,6,Fernando Maldonado,Smithville,54.34,97.52,68.04,,165.56,Single-ply,SB,M
Boys,59.87,1,Victor Aguilar #1,Caldwell,57.24,231.33,127.01,210.92,569.26,Single-ply,SBD,M
Boys,67.13,2,Devin Trevino,Caldwell,60.01,163.29,92.99,163.29,419.57,Single-ply,SBD,M
Boys,59.87,3,Dalton Clark,Normangee,59.06,145.15,81.65,165.56,392.36,Single-ply,SBD,M
Boys,59.87,4,Josh Bedolla,Elgin,59.6,133.81,92.99,165.56,392.36,Single-ply,SBD,M
Boys,59.87,5,Judge Hansen,College Station,59.06,138.35,74.84,156.49,369.68,Single-ply,SBD,M
Boys,59.87,DQ,Christian Carrasco,Rockdale,57.88,,65.77,,,Single-ply,SBD,M
Boys,67.13,1,Travis Tate,College Station,65.95,165.56,95.25,185.97,446.79,Single-ply,SBD,M
Boys,67.13,2,Jacob Rozier,Caldwell,66.86,172.37,86.18,174.63,433.18,Single-ply,SBD,M
Boys,67.13,3,Sam Beal,College Station,66.41,147.42,99.79,154.22,401.43,Single-ply,SBD,M
Boys,67.13,4,Isaiah Tanzini,Thrall,62.73,151.95,92.99,136.08,381.02,Single-ply,SBD,M
Boys,67.13,5,Chris Blaschke,Smithville,63.96,136.08,77.11,163.29,376.48,Single-ply,SBD,M
Boys,67.13,6,Brandon Pelton,Waco La Vega,66.86,142.88,83.91,147.42,374.21,Single-ply,SBD,M
Boys,67.13,7,Devin Heitz,Smithville,65.77,131.54,81.65,127.01,340.19,Single-ply,SBD,M
Boys,74.84,1,Raynard Smith,Waco La Vega,74.21,195.04,108.86,199.58,503.49,Single-ply,SBD,M
Boys,74.84,2,Dalton Cruz,Rockdale,73.3,170.1,106.59,215.46,492.15,Single-ply,SBD,M
Boys,74.84,3,Zachary Riola,Cameron Yoe,74.39,185.97,124.74,181.44,492.15,Single-ply,SBD,M
Boys,74.84,4,Demaquis Sheppard,Waco La Vega,73.57,174.63,90.72,167.83,433.18,Single-ply,SBD,M
Boys,74.84,5,Aaron Ratliff,Normangee,74.21,167.83,77.11,167.83,412.77,Single-ply,SBD,M
Boys,74.84,6,Alec Behrendt,Thrall,68.04,156.49,97.52,156.49,410.5,Single-ply,SBD,M
Boys,74.84,7,Patrick Clouston,College Station,73.57,156.49,77.11,151.95,385.55,Single-ply,SBD,M
Boys,74.84,8,Roberto Renteria,Elgin,70.03,133.81,68.04,174.63,376.48,Single-ply,SBD,M
Boys,74.84,9,Daniel Anderson,Elgin,72.48,136.08,81.65,138.35,356.07,Single-ply,SBD,M
Boys,74.84,10,Trey Lewis,Cameron Yoe,72.39,,52.16,136.08,188.24,Single-ply,BD,M
Boys,82.1,1,Nick Gonzales,Rockdale,77.93,188.24,136.08,192.78,517.1,Single-ply,SBD,M
Boys,82.1,2,Orlando Perez,Elgin,78.83,170.1,120.2,181.44,471.74,Single-ply,SBD,M
Boys,82.1,3,Jordan Jeffery,College Station,81.56,174.63,88.45,172.37,435.45,Single-ply,SBD,M
Boys,82.1,4,Will Martin,Elgin,79.83,151.95,88.45,158.76,399.16,Single-ply,SBD,M
Boys,82.1,5,Esteban Nunez,Caldwell,80.01,147.42,83.91,167.83,399.16,Single-ply,SBD,M
Boys,82.1,6,Eric Martinez,Waco La Vega,79.83,147.42,77.11,167.83,392.36,Single-ply,SBD,M
Boys,82.1,7,Chris Lewis,Cameron Yoe,79.83,104.33,83.91,170.1,358.34,Single-ply,SBD,M
Boys,82.1,8,Frank Trevino,Smithville,77.02,115.67,61.23,115.67,292.57,Single-ply,SBD,M
Boys,82.1,9,Devin Burchell,Bryan Rudder,80.56,,,174.63,174.63,Single-ply,D,M
Boys,82.1,10,Justin Stautz,Thrall,78.47,163.29,,,163.29,Single-ply,S,M
Boys,89.81,1,Jamie Czajkowski,Rockdale,85.18,272.16,183.7,231.33,687.19,Single-ply,SBD,M
Boys,89.81,2,Andrew Jenkins,Rockdale,88,183.7,151.95,229.06,564.72,Single-ply,SBD,M
Boys,89.81,3,Jake Dawson,Smithville,86.55,215.46,117.93,197.31,530.7,Single-ply,SBD,M
Boys,89.81,4,Alex Rodriguez #4,Bryan Rudder,87.36,201.85,113.4,210.92,526.17,Single-ply,SBD,M
Boys,89.81,5,Leshaun Cooper,Caldwell,88.99,183.7,120.2,174.63,478.54,Single-ply,SBD,M
Boys,89.81,6,Dustin Brown,Waco La Vega,85.09,170.1,106.59,165.56,442.25,Single-ply,SBD,M
Boys,89.81,7,Josh Hitchcock,Caldwell,87.09,174.63,83.91,181.44,439.98,Single-ply,SBD,M
Boys,89.81,8,DeAndre Adams,Cameron Yoe,88.54,104.33,79.38,131.54,315.25,Single-ply,SBD,M
Boys,89.81,9,Josh Najera,Elgin,85.73,151.95,,147.42,299.37,Single-ply,SD,M
Boys,89.81,10,Austin Nichols,Normangee,88,149.69,,127.01,276.69,Single-ply,SD,M
Boys,89.81,DQ,DaAaron Jackson,Smithville,89.45,,,,,Single-ply,SD,M
Boys,99.79,1,Antwan Heath,Caldwell,98.88,226.8,149.69,238.14,614.62,Single-ply,SBD,M
Boys,99.79,2,Kegan Bledsoe,Smithville,97.79,238.14,104.33,210.92,553.38,Single-ply,SBD,M
Boys,99.79,3,Wayne Ellard,College Station,93.98,217.72,136.08,176.9,530.7,Single-ply,SBD,M
Boys,99.79,4,Cade Hurta,Smithville,92.08,183.7,111.13,181.44,476.27,Single-ply,SBD,M
Boys,99.79,5,William Wake,Waco La Vega,94.03,181.44,129.27,158.76,469.47,Single-ply,SBD,M
Boys,109.77,6,Josh Ficklin,Elgin,99.97,170.1,99.79,199.58,469.47,Single-ply,SBD,M
Boys,99.79,7,Daniel Barrientos,College Station,96.62,181.44,97.52,167.83,446.79,Single-ply,SBD,M
Boys,99.79,8,Adrian Singleterry,Caldwell,91.63,170.1,83.91,163.29,417.3,Single-ply,SBD,M
Boys,99.79,9,Pablo Rodriguez,Cameron Yoe,95.16,122.47,72.57,142.88,337.93,Single-ply,SBD,M
Boys,109.77,1,Clayton Anderson,Elgin,109.68,267.62,183.7,254.01,705.34,Single-ply,SBD,M
Boys,109.77,2,Juan Nunez,Caldwell,101.7,254.01,145.15,233.6,632.76,Single-ply,SBD,M
Boys,109.77,3,Byron Bryant,Waco La Vega,107.64,204.12,131.54,174.63,510.29,Single-ply,SBD,M
Boys,109.77,4,Hunter Gordon,Elgin,104.42,174.63,122.47,197.31,494.42,Single-ply,SBD,M
Boys,109.77,5,Jesse Tamez,Elgin,100.97,204.12,92.99,156.49,453.59,Single-ply,SBD,M
Boys,109.77,6,Elijah Simpson,Elgin,104.14,170.1,97.52,185.97,453.59,Single-ply,SBD,M
Boys,109.77,7,Cameron Mueck,Cameron Yoe,104.96,167.83,108.86,161.03,437.72,Single-ply,SBD,M
Boys,109.77,8,Jordan Seymore,College Station,107.86,190.51,92.99,154.22,437.72,Single-ply,SBD,M
Boys,109.77,9,Kameron Turner #2,Waco La Vega,107.64,154.22,108.86,167.83,430.91,Single-ply,SBD,M
Boys,109.77,10,Brian McDonald,Cameron Yoe,108.86,77.11,58.97,92.99,229.06,Single-ply,SBD,M
Boys,109.77,DQ,Andrew Escobedo,Waco La Vega,109.59,154.22,,149.69,,Single-ply,SBD,M
Boys,124.74,1,Roberto Requena,Caldwell,112.94,210.92,131.54,217.72,560.19,Single-ply,SBD,M
Boys,124.74,2,Chastin Stautz,Thrall,116.03,154.22,86.18,124.74,365.14,Single-ply,SBD,M
Boys,124.74+,1,Brian Cain,Thrall,138.8,335.66,192.78,256.28,784.71,Single-ply,SBD,M
Boys,124.74+,2,Jacob Shanks,Elgin,155.13,247.21,161.03,272.16,680.39,Single-ply,SBD,M
Boys,124.74+,3,Isaiah Rivas,Elgin,125.74,197.31,147.42,183.7,528.44,Single-ply,SBD,M
Boys,124.74+,4,Jake Fryrear,Caldwell,125.37,174.63,95.25,183.7,453.59,Single-ply,SBD,M
Boys,,NS,Juan Valverde,Cameron Yoe,,,,,,Single-ply,SBD,M
Boys,,NS,Jose Martinez,Cameron Yoe,,,,,,Single-ply,SBD,M
Boys,,NS,Alex Kyner,Thrall,,,,,,Single-ply,SBD,M
Boys,,NS,Markus Hayes,Rockdale,,,,,,Single-ply,SBD,M
Boys,,NS,Gabriel McQuinn,Rockdale,,,,,,Single-ply,SBD,M
Boys,,NS,Jerry Vidal,Rockdale,,,,,,Single-ply,SBD,M
Boys,,NS,Rajah Preciado,College Station,,,,,,Single-ply,SBD,M
Boys,,NS,Desmond Payton,College Station,,,,,,Single-ply,SBD,M
Boys,,NS,Ryan Welch,College Station,,,,,,Single-ply,SBD,M
